﻿


EVENT   1
 PAGE   1
  ShowMessageFace("",0,0,2,1)
  ShowMessage("Large red letters are scrawled on one page...")
  ShowMessageFace("",0,0,2,2)
  ShowMessage("'EXPERIMENT FAILED'")
  0()



EVENT   2
 PAGE   1
  281(1)
  250(bytes(0x04,0x08,0x6f,0x3a,0x0c,0x52,0x50,0x47,0x3a,0x3a,0x53,0x45,0x08,0x3a,0x0a,0x40,0x6e,0x61,0x6d,0x65,0x49,0x22,0x09,0x4d,0x6f,0x76,0x65,0x06,0x3a,0x06,0x45,0x54,0x3a,0x0b,0x40,0x70,0x69,0x74,0x63,0x68,0x69,0x69,0x3a,0x0c,0x40,0x76,0x6f,0x6c,0x75,0x6d,0x65,0x69,0x55))
  TeleportPlayer(0,462,19,54,0,0)
  0()



EVENT   3
 PAGE   1
  281(1)
  250(bytes(0x04,0x08,0x6f,0x3a,0x0c,0x52,0x50,0x47,0x3a,0x3a,0x53,0x45,0x08,0x3a,0x0a,0x40,0x6e,0x61,0x6d,0x65,0x49,0x22,0x09,0x4d,0x6f,0x76,0x65,0x06,0x3a,0x06,0x45,0x54,0x3a,0x0b,0x40,0x70,0x69,0x74,0x63,0x68,0x69,0x69,0x3a,0x0c,0x40,0x76,0x6f,0x6c,0x75,0x6d,0x65,0x69,0x55))
  TeleportPlayer(0,462,20,54,0,0)
  0()



EVENT   4
 PAGE   1
  250(bytes(0x04,0x08,0x6f,0x3a,0x0c,0x52,0x50,0x47,0x3a,0x3a,0x53,0x45,0x08,0x3a,0x0a,0x40,0x6e,0x61,0x6d,0x65,0x49,0x22,0x0a,0x43,0x68,0x65,0x73,0x74,0x06,0x3a,0x06,0x45,0x54,0x3a,0x0b,0x40,0x70,0x69,0x74,0x63,0x68,0x69,0x69,0x3a,0x0c,0x40,0x76,0x6f,0x6c,0x75,0x6d,0x65,0x69,0x55))
  205(0,bytes(0x04,0x08,0x6f,0x3a,0x13,0x52,0x50,0x47,0x3a,0x3a,0x4d,0x6f,0x76,0x65,0x52,0x6f,0x75,0x74,0x65,0x09,0x3a,0x0c,0x40,0x72,0x65,0x70,0x65,0x61,0x74,0x46,0x3a,0x0f,0x40,0x73,0x6b,0x69,0x70,0x70,0x61,0x62,0x6c,0x65,0x46,0x3a,0x0a,0x40,0x77,0x61,0x69,0x74,0x54,0x3a,0x0a,0x40,0x6c,0x69,0x73,0x74,0x5b,0x0b,0x6f,0x3a,0x15,0x52,0x50,0x47,0x3a,0x3a,0x4d,0x6f,0x76,0x65,0x43,0x6f,0x6d,0x6d,0x61,0x6e,0x64,0x07,0x3a,0x0a,0x40,0x63,0x6f,0x64,0x65,0x69,0x29,0x3a,0x10,0x40,0x70,0x61,0x72,0x61,0x6d,0x65,0x74,0x65,0x72,0x73,0x5b,0x00,0x6f,0x3b,0x0a,0x07,0x3b,0x0b,0x69,0x16,0x3b,0x0c,0x5b,0x00,0x6f,0x3b,0x0a,0x07,0x3b,0x0b,0x69,0x14,0x3b,0x0c,0x5b,0x06,0x69,0x08,0x6f,0x3b,0x0a,0x07,0x3b,0x0b,0x69,0x17,0x3b,0x0c,0x5b,0x00,0x6f,0x3b,0x0a,0x07,0x3b,0x0b,0x69,0x14,0x3b,0x0c,0x5b,0x06,0x69,0x08,0x6f,0x3b,0x0a,0x07,0x3b,0x0b,0x69,0x00,0x3b,0x0c,0x5b,0x00))
  ChangeSelfSwitch("A",0)
  ChangeInventory_Item(166,0,0,1)
  0()
 PAGE   2
  // condition: self-switch A is ON
  0()



EVENT   5
 PAGE   1
  // condition: switch 6 is ON
  ChangeSelfSwitch("A",0)
  ShowMessageFace("",0,0,2,1)
  ShowMessage("The party hears a rummaging sound from the back of the house.")
  ShowMessageFace("sonia_fc3",7,0,2,2)
  ShowMessage("\\n<Sonya>It sounds like something's back there...")
  If(4,62,0)
   ShowMessageFace("gob_fc1",3,0,2,3)
   ShowMessage("\\n<Gob>C-come on out! I'm not scared! I'll beat you up!")
   0()
  EndIf()
  0()
 PAGE   2
  // condition: self-switch A is ON
  0()
 PAGE   3
  // condition: switch 2125 is ON
  0()



EVENT   6
 PAGE   1
  // condition: switch 6 is ON
  If(1,1013,0,0,0)
   ShowMessageFace("nuruko_fc1",0,0,2,1)
   ShowMessage("\\n<???>*Chomp* *chomp* *munch*")
   ShowMessageFace("",0,0,2,2)
   ShowMessage("The strange creature is eating an apple.")
   ShowSpeechBalloon(0,1,true)
   205(0,bytes(0x04,0x08,0x6f,0x3a,0x13,0x52,0x50,0x47,0x3a,0x3a,0x4d,0x6f,0x76,0x65,0x52,0x6f,0x75,0x74,0x65,0x09,0x3a,0x0c,0x40,0x72,0x65,0x70,0x65,0x61,0x74,0x46,0x3a,0x0f,0x40,0x73,0x6b,0x69,0x70,0x70,0x61,0x62,0x6c,0x65,0x46,0x3a,0x0a,0x40,0x77,0x61,0x69,0x74,0x54,0x3a,0x0a,0x40,0x6c,0x69,0x73,0x74,0x5b,0x08,0x6f,0x3a,0x15,0x52,0x50,0x47,0x3a,0x3a,0x4d,0x6f,0x76,0x65,0x43,0x6f,0x6d,0x6d,0x61,0x6e,0x64,0x07,0x3a,0x0a,0x40,0x63,0x6f,0x64,0x65,0x69,0x29,0x3a,0x10,0x40,0x70,0x61,0x72,0x61,0x6d,0x65,0x74,0x65,0x72,0x73,0x5b,0x00,0x6f,0x3b,0x0a,0x07,0x3b,0x0b,0x69,0x16,0x3b,0x0c,0x5b,0x00,0x6f,0x3b,0x0a,0x07,0x3b,0x0b,0x69,0x00,0x3b,0x0c,0x5b,0x00))
   PictureDisplay(5,"80_nuruko_st01",0,0,0,0,100,100,0,0)
   PictureMove(5,null,0,0,0,0,100,100,255,0,30,true)
   ShowMessageFace("nuruko_fc1",0,0,2,3)
   ShowMessage("\\n<???>Kyuu!")
   ShowMessageFace("sonia_fc2",3,0,2,4)
   ShowMessage("\\n<Sonya>Hold on, we're not here to hurt you!")
   If(0,4,0)
    ShowMessageFace("alice_fc5",2,0,2,5)
    ShowMessage("\\n<Alice>Look out! She's coming right for us!")
    0()
   EndIf()
   If(0,5,0)
    ShowMessageFace("iriasu_fc4",7,0,2,6)
    ShowMessage("\\n<Ilias>She's attacking! Get ready!")
    0()
   EndIf()
   If(4,68,0)
    ShowMessageFace("dragonp_fc1",2,0,2,7)
    ShowMessage("\\n<Papi>What is she?! What's going on?!")
    0()
   EndIf()
   PictureClear(5)
   SetBattleBGM(bytes(0x04,0x08,0x6f,0x3a,0x0d,0x52,0x50,0x47,0x3a,0x3a,0x42,0x47,0x4d,0x08,0x3a,0x0a,0x40,0x6e,0x61,0x6d,0x65,0x49,0x22,0x0a,0x62,0x6f,0x73,0x73,0x31,0x06,0x3a,0x06,0x45,0x54,0x3a,0x0c,0x40,0x76,0x6f,0x6c,0x75,0x6d,0x65,0x69,0x69,0x3a,0x0b,0x40,0x70,0x69,0x74,0x63,0x68,0x69,0x69))
   ChangeSwitch(22,22,0)
   Battle(0,57,false,false)
   ChangeSwitch(22,22,1)
   SetBattleBGM(bytes(0x04,0x08,0x6f,0x3a,0x0d,0x52,0x50,0x47,0x3a,0x3a,0x42,0x47,0x4d,0x08,0x3a,0x0a,0x40,0x6e,0x61,0x6d,0x65,0x49,0x22,0x0b,0x62,0x61,0x74,0x74,0x6c,0x65,0x06,0x3a,0x06,0x45,0x54,0x3a,0x0c,0x40,0x76,0x6f,0x6c,0x75,0x6d,0x65,0x69,0x69,0x3a,0x0b,0x40,0x70,0x69,0x74,0x63,0x68,0x69,0x69))
   PictureDisplay(5,"80_nuruko_st03",0,0,0,0,100,100,0,0)
   PictureMove(5,null,0,0,0,0,100,100,255,0,30,true)
   ShowMessageFace("ruka_fc1",0,0,2,8)
   ShowMessage("\\n<Luka>Whew...")
   ShowMessageFace("nuruko_fc1",2,0,2,9)
   ShowMessage("\\n<???>......")
   ShowMessageFace("sonia_fc1",0,0,2,10)
   ShowMessage("\\n<Sonya>It looks like she's calmed down. I don't think she's evil or anything. She just attacked because we startled her.")
   If(4,53,0)
    ShowMessageFace("slime_fc1",2,0,2,11)
    ShowMessage("\\n<Lime>She startled me...")
    0()
   EndIf()
   PictureDisplay(5,"80_nuruko_st01",0,0,0,0,100,100,255,0)
   ShowMessageFace("nuruko_fc1",0,0,2,12)
   ShowMessage("\\n<???>Kyuu!")
   ShowMessageFace("sonia_fc1",0,0,2,13)
   ShowMessage("\\n<Sonya>We're sorry, we'll leave you alone now.")
   PictureDisplay(5,"80_nuruko_st03",0,0,0,0,100,100,255,0)
   ShowMessageFace("nuruko_fc1",2,0,2,14)
   ShowMessage("\\n<???>Kyu...")
   ChangeVariable(1013,1013,0,0,1)
   PictureClear(5)
   EndEventProcessing()
   0()
  EndIf()
  If(1,1013,0,1,0)
   PictureDisplay(5,"80_nuruko_st03",0,0,0,0,100,100,0,0)
   PictureMove(5,null,0,0,0,0,100,100,255,0,30,true)
   ShowMessageFace("nuruko_fc1",2,0,2,15)
   ShowMessage("\\n<???>......")
   PictureClear(5)
   0()
  EndIf()
  0()
 PAGE   2
  // condition: switch 6 is ON
  // condition: variable 1013 >= 2
  PictureDisplay(5,"80_nuruko_st01",0,0,0,0,100,100,0,0)
  PictureMove(5,null,0,0,0,0,100,100,255,0,30,true)
  ShowMessageFace("nuruko_fc1",0,0,2,1)
  ShowMessage("\\n<???>Kyuu! Kyuu!")
  If(0,4,0)
   ShowMessageFace("alice_fc5",0,0,2,2)
   ShowMessage("\\n<Alice>It looks like she wants to come along. Did she get emotionally attached?")
   0()
  EndIf()
  If(0,5,0)
   ShowMessageFace("iriasu_fc4",7,0,2,3)
   ShowMessage("\\n<Ilias>That creature seems to be following us. Planning to stab us in the back, no doubt...")
   0()
  EndIf()
  ShowMessageFace("nuruko_fc1",0,0,2,4)
  ShowMessage("\\n<???>Kyuu! Kyuu!")
  ShowMessageFace("sonia_fc1",0,0,2,5)
  ShowMessage("\\n<Sonya>Do you really want to come along?")
  ShowMessageFace("sonia_fc1",0,0,2,6)
  ShowMessage("\\n<Sonya>Hey, Luka... Can we take her home with us?")
  ShowChoices(strings("Add her to the party","Uhhh, no"),2)
  IfPlayerPicksChoice(0,null)
   ShowMessageFace("nuruko_fc1",0,0,2,7)
   ShowMessage("\\n<???>Kyuu! Kyuu!")
   ShowMessageFace("sonia_fc1",0,0,2,8)
   ShowMessage("\\n<Sonya>Hmm, you're kind of slimy and child-like... That'd make you 'Nuruko' in the language of Yamatai... Sound good?")
   If(0,4,0)
    ShowMessageFace("alice_fc5",0,0,2,9)
    ShowMessage("\\n<Alice>Your sense of naming is tragic.")
    0()
   EndIf()
   If(0,5,0)
    ShowMessageFace("iriasu_fc4",2,0,2,10)
    ShowMessage("\\n<Ilias>If you had created the world, the planet would be covered in things with stupid names...")
    0()
   EndIf()
   ShowMessageFace("nuruko_fc1",0,0,2,11)
   ShowMessage("\\n<Nuruko>Kyu kyu kyu!")
   PictureClear(5)
   205(0,bytes(0x04,0x08,0x6f,0x3a,0x13,0x52,0x50,0x47,0x3a,0x3a,0x4d,0x6f,0x76,0x65,0x52,0x6f,0x75,0x74,0x65,0x09,0x3a,0x0c,0x40,0x72,0x65,0x70,0x65,0x61,0x74,0x46,0x3a,0x0f,0x40,0x73,0x6b,0x69,0x70,0x70,0x61,0x62,0x6c,0x65,0x46,0x3a,0x0a,0x40,0x77,0x61,0x69,0x74,0x54,0x3a,0x0a,0x40,0x6c,0x69,0x73,0x74,0x5b,0x09,0x6f,0x3a,0x15,0x52,0x50,0x47,0x3a,0x3a,0x4d,0x6f,0x76,0x65,0x43,0x6f,0x6d,0x6d,0x61,0x6e,0x64,0x07,0x3a,0x0a,0x40,0x63,0x6f,0x64,0x65,0x69,0x2a,0x3a,0x10,0x40,0x70,0x61,0x72,0x61,0x6d,0x65,0x74,0x65,0x72,0x73,0x5b,0x00,0x6f,0x3b,0x0a,0x07,0x3b,0x0b,0x69,0x0f,0x3b,0x0c,0x5b,0x00,0x6f,0x3b,0x0a,0x07,0x3b,0x0b,0x69,0x2c,0x3b,0x0c,0x5b,0x00,0x6f,0x3b,0x0a,0x07,0x3b,0x0b,0x69,0x00,0x3b,0x0c,0x5b,0x00))
   355("add_actor_ex(79)")
   249(bytes(0x04,0x08,0x6f,0x3a,0x0c,0x52,0x50,0x47,0x3a,0x3a,0x4d,0x45,0x08,0x3a,0x0a,0x40,0x6e,0x61,0x6d,0x65,0x49,0x22,0x0c,0x66,0x61,0x6e,0x66,0x61,0x6c,0x65,0x06,0x3a,0x06,0x45,0x54,0x3a,0x0b,0x40,0x70,0x69,0x74,0x63,0x68,0x69,0x69,0x3a,0x0c,0x40,0x76,0x6f,0x6c,0x75,0x6d,0x65,0x69,0x69))
   ShowMessageFace("",0,0,2,12)
   ShowMessage("Nuruko joined the party!")
   ChangeSwitch(2125,2125,0)
   Wait(60)
   ShowMessageFace("sonia_fc2",2,0,2,13)
   ShowMessage("\\n<Sonya>We still don't even know what she is, though.")
   ShowMessageFace("ruka_fc1",0,0,2,14)
   ShowMessage("\\n<Luka>It's too late to worry about that now...")
   If(4,68,0)
    ShowMessageFace("dragonp_fc1",0,0,2,15)
    ShowMessage("\\n<Papi>Whatever you are, welcome to the party!")
    ShowMessageFace("nuruko_fc1",0,0,2,16)
    ShowMessage("\\n<Nuruko>Kyuuu!")
    0()
   EndIf()
   EndEventProcessing()
   0()
  IfPlayerPicksChoice(1,null)
   ShowMessageFace("nuruko_fc1",0,0,2,17)
   ShowMessage("\\n<???>Kyuu! Kyuu!")
   ShowMessageFace("sonia_fc2",2,0,2,18)
   ShowMessage("\\n<Sonya>I'm sorry, he said no...")
   PictureDisplay(5,"80_nuruko_st03",0,0,0,0,100,100,255,0)
   ShowMessageFace("nuruko_fc1",2,0,2,19)
   ShowMessage("\\n<???>......")
   PictureClear(5)
   EndEventProcessing()
   0()
  404()
  0()
 PAGE   3
  // condition: switch 2125 is ON
  0()



EVENT   7
 PAGE   1
  // condition: variable 1013 >= 1
  If(1,1013,0,1,0)
   ChangeVariable(1013,1013,0,0,2)
   TeleportEvent(0,0,3,2,0)
   0()
  EndIf()
  0()



EVENT   8
 PAGE   1
  // condition: variable 1013 >= 1
  If(1,1013,0,1,0)
   ChangeVariable(1013,1013,0,0,2)
   TeleportEvent(0,0,3,2,0)
   0()
  EndIf()
  0()



EVENT   9
 PAGE   1
  // condition: variable 1013 >= 1
  If(1,1013,0,1,0)
   ChangeVariable(1013,1013,0,0,2)
   TeleportEvent(0,0,3,2,0)
   0()
  EndIf()
  0()
