﻿
DisplayName "？？？？？？？？"



EVENT   1
 PAGE   1
  0()



EVENT   2
 PAGE   1
  // condition: switch 31 is ON
  0()



EVENT   3
 PAGE   1
  Wait(60)
  ShowMessageFace("ruka_fc1",0,0,2,1)
  ShowMessage("\\n<Luka>……………………")
  ChangeSwitch(31,31,0)
  205(2,bytes(0x04,0x08,0x6f,0x3a,0x13,0x52,0x50,0x47,0x3a,0x3a,0x4d,0x6f,0x76,0x65,0x52,0x6f,0x75,0x74,0x65,0x09,0x3a,0x0c,0x40,0x72,0x65,0x70,0x65,0x61,0x74,0x46,0x3a,0x0f,0x40,0x73,0x6b,0x69,0x70,0x70,0x61,0x62,0x6c,0x65,0x46,0x3a,0x0a,0x40,0x77,0x61,0x69,0x74,0x54,0x3a,0x0a,0x40,0x6c,0x69,0x73,0x74,0x5b,0x0b,0x6f,0x3a,0x15,0x52,0x50,0x47,0x3a,0x3a,0x4d,0x6f,0x76,0x65,0x43,0x6f,0x6d,0x6d,0x61,0x6e,0x64,0x07,0x3a,0x0a,0x40,0x63,0x6f,0x64,0x65,0x69,0x09,0x3a,0x10,0x40,0x70,0x61,0x72,0x61,0x6d,0x65,0x74,0x65,0x72,0x73,0x5b,0x00,0x6f,0x3b,0x0a,0x07,0x3b,0x0b,0x69,0x09,0x3b,0x0c,0x5b,0x00,0x6f,0x3b,0x0a,0x07,0x3b,0x0b,0x69,0x09,0x3b,0x0c,0x5b,0x00,0x6f,0x3b,0x0a,0x07,0x3b,0x0b,0x69,0x09,0x3b,0x0c,0x5b,0x00,0x6f,0x3b,0x0a,0x07,0x3b,0x0b,0x69,0x09,0x3b,0x0c,0x5b,0x00,0x6f,0x3b,0x0a,0x07,0x3b,0x0b,0x69,0x00,0x3b,0x0c,0x5b,0x00))
  ShowMessageFace("sirousagi_fc1",0,0,2,2)
  ShowMessage("\\n<White Rabbit>この世界も、もう終わりだね……")
  ShowMessage("ここもカオスに飲まれて、全部消えちゃうよ。")
  ShowMessageFace("sirousagi_fc1",0,0,2,3)
  ShowMessage("\\n<White Rabbit>キミもみんなも、あんなに頑張ったのにね。")
  ShowMessage("必死で戦って、終わりを回避しようとしたのにね……")
  ShowMessageFace("sirousagi_fc1",0,0,2,4)
  ShowMessage("\\n<White Rabbit>キミは、この結末で満足だったのかな？")
  ShowMessageFace("ruka_fc1",0,0,2,5)
  ShowMessage("\\n<Luka>……………………")
  ShowMessageFace("sirousagi_fc1",0,0,2,6)
  ShowMessage("\\n<White Rabbit>……ボクは、嫌だな。")
  205(1,bytes(0x04,0x08,0x6f,0x3a,0x13,0x52,0x50,0x47,0x3a,0x3a,0x4d,0x6f,0x76,0x65,0x52,0x6f,0x75,0x74,0x65,0x09,0x3a,0x0c,0x40,0x72,0x65,0x70,0x65,0x61,0x74,0x46,0x3a,0x0f,0x40,0x73,0x6b,0x69,0x70,0x70,0x61,0x62,0x6c,0x65,0x46,0x3a,0x0a,0x40,0x77,0x61,0x69,0x74,0x54,0x3a,0x0a,0x40,0x6c,0x69,0x73,0x74,0x5b,0x07,0x6f,0x3a,0x15,0x52,0x50,0x47,0x3a,0x3a,0x4d,0x6f,0x76,0x65,0x43,0x6f,0x6d,0x6d,0x61,0x6e,0x64,0x07,0x3a,0x0a,0x40,0x63,0x6f,0x64,0x65,0x69,0x16,0x3a,0x10,0x40,0x70,0x61,0x72,0x61,0x6d,0x65,0x74,0x65,0x72,0x73,0x5b,0x00,0x6f,0x3b,0x0a,0x07,0x3b,0x0b,0x69,0x00,0x3b,0x0c,0x5b,0x00))
  ShowMessageFace("ruka_fc1",0,0,2,7)
  ShowMessage("\\n<Luka>え……？")
  205(2,bytes(0x04,0x08,0x6f,0x3a,0x13,0x52,0x50,0x47,0x3a,0x3a,0x4d,0x6f,0x76,0x65,0x52,0x6f,0x75,0x74,0x65,0x09,0x3a,0x0c,0x40,0x72,0x65,0x70,0x65,0x61,0x74,0x46,0x3a,0x0f,0x40,0x73,0x6b,0x69,0x70,0x70,0x61,0x62,0x6c,0x65,0x46,0x3a,0x0a,0x40,0x77,0x61,0x69,0x74,0x54,0x3a,0x0a,0x40,0x6c,0x69,0x73,0x74,0x5b,0x07,0x6f,0x3a,0x15,0x52,0x50,0x47,0x3a,0x3a,0x4d,0x6f,0x76,0x65,0x43,0x6f,0x6d,0x6d,0x61,0x6e,0x64,0x07,0x3a,0x0a,0x40,0x63,0x6f,0x64,0x65,0x69,0x09,0x3a,0x10,0x40,0x70,0x61,0x72,0x61,0x6d,0x65,0x74,0x65,0x72,0x73,0x5b,0x00,0x6f,0x3b,0x0a,0x07,0x3b,0x0b,0x69,0x00,0x3b,0x0c,0x5b,0x00))
  ShowMessageFace("sirousagi_fc1",0,0,2,8)
  ShowMessage("\\n<White Rabbit>これまでボクは、滅び行く世界を何度も見てきたよ。")
  ShowMessageFace("sirousagi_fc1",0,0,2,9)
  ShowMessage("\\n<White Rabbit>みんな、必死で頑張って……")
  ShowMessage("ボロボロになるまで、戦い抜いて……")
  ShowMessageFace("sirousagi_fc1",0,0,2,10)
  ShowMessage("\\n<White Rabbit>それでも未来は掴めなくて、世界は終焉を迎えて……")
  ShowMessage("それが何度も、何度も、何度も、何度も……")
  205(1,bytes(0x04,0x08,0x6f,0x3a,0x13,0x52,0x50,0x47,0x3a,0x3a,0x4d,0x6f,0x76,0x65,0x52,0x6f,0x75,0x74,0x65,0x09,0x3a,0x0c,0x40,0x72,0x65,0x70,0x65,0x61,0x74,0x46,0x3a,0x0f,0x40,0x73,0x6b,0x69,0x70,0x70,0x61,0x62,0x6c,0x65,0x46,0x3a,0x0a,0x40,0x77,0x61,0x69,0x74,0x54,0x3a,0x0a,0x40,0x6c,0x69,0x73,0x74,0x5b,0x07,0x6f,0x3a,0x15,0x52,0x50,0x47,0x3a,0x3a,0x4d,0x6f,0x76,0x65,0x43,0x6f,0x6d,0x6d,0x61,0x6e,0x64,0x07,0x3a,0x0a,0x40,0x63,0x6f,0x64,0x65,0x69,0x18,0x3a,0x10,0x40,0x70,0x61,0x72,0x61,0x6d,0x65,0x74,0x65,0x72,0x73,0x5b,0x00,0x6f,0x3b,0x0a,0x07,0x3b,0x0b,0x69,0x00,0x3b,0x0c,0x5b,0x00))
  ShowMessageFace("ruka_fc1",0,0,2,11)
  ShowMessage("\\n<Luka>……………………")
  ShowMessageFace("sirousagi_fc1",0,0,2,12)
  ShowMessage("\\n<White Rabbit>キミもこれまで、見てきたはずだよね。")
  ShowMessage("絶望に抗い、未来を掴もうとするみんなの姿を……")
  ShowMessageFace("sirousagi_fc1",0,0,2,13)
  ShowMessage("\\n<White Rabbit>欲しいよね、希望の未来が。")
  ShowMessage("こんな終わりは、もう見たくないよね……")
  ShowMessageFace("sirousagi_fc1",0,0,2,14)
  ShowMessage("\\n<White Rabbit>ボクは、嫌だな。")
  ShowMessage("一度でいいから、みんなが報われる未来が見たいよ……")
  ShowMessageFace("ruka_fc1",0,0,2,15)
  ShowMessage("\\n<Luka>ああ……")
  ShowMessageFace("sirousagi_fc1",0,0,2,16)
  ShowMessage("\\n<White Rabbit>……だから、ボクが導くよ。")
  ShowMessage("何度でも何度でも、力の限り導いてあげる。")
  ShowMessageFace("sirousagi_fc1",0,0,2,17)
  ShowMessage("\\n<White Rabbit>全ての絶望を終わらせるために――")
  ShowMessageFace("ruka_fc1",0,0,2,18)
  ShowMessage("\\n<Luka>明るい未来を、この手に掴むために――")
  ShowMessageFace("sirousagi_fc1",0,0,2,19)
  ShowMessage("\\n<White Rabbit>さあ行こう、勇者ルカ。")
  ShowMessage("終わりを終わらせるための戦いに！")
  Wait(30)
  241(bytes(0x04,0x08,0x6f,0x3a,0x0d,0x52,0x50,0x47,0x3a,0x3a,0x42,0x47,0x4d,0x08,0x3a,0x0a,0x40,0x6e,0x61,0x6d,0x65,0x49,0x22,0x0a,0x74,0x69,0x74,0x6c,0x65,0x06,0x3a,0x06,0x45,0x54,0x3a,0x0c,0x40,0x76,0x6f,0x6c,0x75,0x6d,0x65,0x69,0x69,0x3a,0x0b,0x40,0x70,0x69,0x74,0x63,0x68,0x69,0x69))
  PictureDisplay(5,"logo1_2",0,0,0,60,100,100,255,0)
  PictureDisplay(4,"bg140",0,0,0,0,100,100,0,0)
  PictureMove(4,null,0,0,0,0,100,100,255,0,180,true)
  Wait(300)
  242(2)
  221()
  PictureClear(4)
  PictureClear(5)
  ChangeSwitch(1,1,1)
  Wait(120)
  211(1)
  TeleportPlayer(0,576,14,50,8,2)
  222()
  Wait(60)
  0()
