﻿// EVENT 4362
Name "Seaweed Girl 2"

If(0,25,1)
 221()
 PictureClear(5)
 PictureClear(6)
 ShowMessageFace("",0,0,2,1)
 ShowMessage("........")
 242(2)
 Wait(120)
 241(bytes(0x04,0x08,0x6f,0x3a,0x0d,0x52,0x50,0x47,0x3a,0x3a,0x42,0x47,0x4d,0x08,0x3a,0x0a,0x40,0x6e,0x61,0x6d,0x65,0x49,0x22,0x0c,0x63,0x61,0x73,0x74,0x6c,0x65,0x36,0x06,0x3a,0x06,0x45,0x54,0x3a,0x0c,0x40,0x76,0x6f,0x6c,0x75,0x6d,0x65,0x69,0x69,0x3a,0x0b,0x40,0x70,0x69,0x74,0x63,0x68,0x69,0x69))
 EndEventProcessing()
 0()
EndIf()
PictureDisplay(5,"80_wakame_st01",0,0,0,0,100,100,255,0)
ShowMessageFace("wakame_fc1",0,0,2,2)
ShowMessage("\\n<Wakame>")
ShowMessage("You want to feel good with my seaweed...?")
ShowMessageFace("",0,0,2,3)
ShowMessage("\\n<Luka>")
ShowMessage("P-Please...")
PictureDisplay(5,"80_wakame_st02",0,0,0,0,100,100,255,0)
ShowMessageFace("wakame_fc1",1,0,2,4)
ShowMessage("\\n<Wakame>")
ShowMessage("Well then I'll rub you with my seaweed...")
ShowMessageFace("",0,0,2,5)
ShowMessage("Wakame gets really close to my body.")
ShowMessage("And then she rubs against my crotch...")
241(bytes(0x04,0x08,0x6f,0x3a,0x0d,0x52,0x50,0x47,0x3a,0x3a,0x42,0x47,0x4d,0x08,0x3a,0x0a,0x40,0x6e,0x61,0x6d,0x65,0x49,0x22,0x09,0x65,0x72,0x6f,0x31,0x06,0x3a,0x06,0x45,0x54,0x3a,0x0c,0x40,0x76,0x6f,0x6c,0x75,0x6d,0x65,0x69,0x69,0x3a,0x0b,0x40,0x70,0x69,0x74,0x63,0x68,0x69,0x69))
245(bytes(0x04,0x08,0x6f,0x3a,0x0d,0x52,0x50,0x47,0x3a,0x3a,0x42,0x47,0x53,0x08,0x3a,0x0a,0x40,0x6e,0x61,0x6d,0x65,0x49,0x22,0x1a,0x6d,0x6f,0x6e,0x5f,0x68,0x73,0x65,0x61,0x6e,0x32,0x31,0x5f,0x74,0x65,0x6e,0x74,0x61,0x63,0x6c,0x65,0x32,0x06,0x3a,0x06,0x45,0x54,0x3a,0x0c,0x40,0x76,0x6f,0x6c,0x75,0x6d,0x65,0x69,0x55,0x3a,0x0b,0x40,0x70,0x69,0x74,0x63,0x68,0x69,0x69))
PictureDisplay(5,"ev_wakame_hb1",0,0,0,0,100,100,0,0)
PictureMove(5,null,0,0,0,0,100,100,255,0,30,true)
ShowMessageFace("",0,0,2,6)
ShowMessage("\\n<Luka>")
ShowMessage("Ah, aaaaah!!")
ShowMessageFace("",0,0,2,7)
ShowMessage("My penis sticks into a hole in her crotch.")
ShowMessage("All at once my penis is covered in a slick sensation.")
ShowMessageFace("wakame_fc1",1,0,2,8)
ShowMessage("\\n<Wakame>")
ShowMessage("Humans mate like this, right?")
ShowMessage("I tried making a seaweed vagina...")
ShowMessageFace("",0,0,2,9)
ShowMessage("\\n<Luka>")
ShowMessage("Ah, Auuuu...!!")
ShowMessageFace("",0,0,2,10)
ShowMessage("The hole imitating a vagina has a strange lining to it, covering my penis.")
ShowMessage("Its surface is rippled and squeezes my penis tight.")
ShowMessageFace("",0,0,2,11)
ShowMessage("\\n<Luka>")
ShowMessage("A-amazing...that feels so good...")
ShowMessageFace("wakame_fc1",1,0,2,12)
ShowMessage("\\n<Wakame>")
ShowMessage("You can play with my hole...")
ShowMessage("It makes me happy...")
ShowMessageFace("",0,0,2,13)
ShowMessage("Wakame's hole starts rippling.")
ShowMessage("It moves in a mysterious way rubbing and squeezing my penis.")
ShowMessageFace("",0,0,2,14)
ShowMessage("My body trembles in pleasure with my penis inside her.")
ShowMessage("I can't hold back my ejaculation any longer...")
ShowMessageFace("",0,0,2,15)
ShowMessage("\\n<Luka>")
ShowMessage("Aaaaah...No more, I'm coming!!")
ShowMessageFace("wakame_fc1",1,0,2,16)
ShowMessage("\\n<Wakame>")
ShowMessage("Come then...")
ShowMessage("Let out your seed inside me...")
ShowMessageFace("",0,0,2,17)
ShowMessage("\\n<Luka>")
ShowMessage("Ah, auuuuu!!")
ShowMessageFace("",0,0,2,18)
ShowMessage("Her rippling movement becomes more and more intense.")
ShowMessage("I succumb to her intense stimulation that feels like it's washing my penis.")
RunCommonEvent(104)
PictureDisplay(5,"ev_wakame_hb2",0,0,0,0,100,100,255,0)
RunCommonEvent(105)
ShowMessageFace("",0,0,2,19)
ShowMessage("\\n<Luka>")
ShowMessage("Nnngh...")
ShowMessageFace("",0,0,2,20)
ShowMessage("I come to a miserable finish.")
ShowMessage("My semen streams out inside her slick hole.")
ShowMessageFace("wakame_fc1",1,0,2,21)
ShowMessage("\\n<Wakame>")
ShowMessage("You let out a lot...")
ShowMessage("Did mating with my seaweed hole feel good...?")
ShowMessageFace("",0,0,2,22)
ShowMessage("\\n<Luka>")
ShowMessage("Nnngh...")
ShowMessageFace("wakame_fc1",1,0,2,23)
ShowMessage("\\n<Wakame>")
ShowMessage("But, I want more...")
ShowMessage("Shoot out more...")
ShowMessageFace("",0,0,2,24)
ShowMessage("\\n<Luka>")
ShowMessage("Ah...Aaaaaaah...!!")
ShowMessageFace("",0,0,2,25)
ShowMessage("Her hole undulates and gives my penis a crazy pleasure.")
ShowMessage("It's getting rubbed from tip to root by her slick inside.")
ShowMessageFace("",0,0,2,26)
ShowMessage("\\n<Luka>")
ShowMessage("Ah...Hauu, Aaaaah!")
ShowMessageFace("",0,0,2,27)
ShowMessage("I try to pull out unable to endure this crazy stimulation.")
ShowMessageFace("wakame_fc1",1,0,2,28)
ShowMessage("\\n<Wakame>")
ShowMessage("No escaping...Stay...")
ShowMessageFace("",0,0,2,29)
ShowMessage("Wakame hugs me tight and doesn't allow me to pull out of her hole.")
ShowMessage("My penis keeps being stimulated by that crazy pleasure...")
ShowMessageFace("",0,0,2,30)
ShowMessage("\\n<Luka>")
ShowMessage("This...No...Auuuu!!")
ShowMessageFace("",0,0,2,31)
ShowMessage("The inside starts to tighten, moves in a wavy motion and swells at the same time.")
ShowMessage("With my whole body trembling, I entrust myself to this pleasure.")
ShowMessageFace("",0,0,2,32)
ShowMessage("I taste every stimulation her vagina gives with my penis...")
ShowMessage("In just moments the feeling of release already invades my body.")
ShowMessageFace("",0,0,2,33)
ShowMessage("\\n<Luka>")
ShowMessage("Aaah...I'm coming again...")
ShowMessageFace("wakame_fc1",1,0,2,34)
ShowMessage("\\n<Wakame>")
ShowMessage("Please give me a lot...")
ShowMessage("Pew pew pew...")
ShowMessageFace("",0,0,2,35)
ShowMessage("\\n<Luka>")
ShowMessage("Hauuuu!!")
ShowMessageFace("",0,0,2,36)
ShowMessage("Her vagina's rippling becomes even more intense and my vision goes pure white.")
ShowMessage("I feel like I lose control over my waste while tasting the sweet stimulation...")
RunCommonEvent(104)
PictureDisplay(5,"ev_wakame_hb3",0,0,0,0,100,100,255,0)
RunCommonEvent(105)
ShowMessageFace("",0,0,2,37)
ShowMessage("I shoot another healthy amount of semen inside Wakame.")
ShowMessage("My semen flows inside her shrinking vagina...")
ShowMessageFace("",0,0,2,38)
ShowMessage("\\n<Luka>")
ShowMessage("Auu...Aaaaah...")
ShowMessageFace("wakame_fc1",1,0,2,39)
ShowMessage("\\n<Wakame>")
ShowMessage("Ufufu...")
ShowMessageFace("",0,0,2,40)
ShowMessage("It feels as if my semen was forcibly squeezed out.")
ShowMessage("The pleasure continues until I shoot out my last drop...")
ShowMessageFace("wakame_fc1",1,0,2,41)
ShowMessage("\\n<Wakame>")
ShowMessage("This fake mating felt good...")
ShowMessage("Let's do it again...")
ShowMessageFace("",0,0,2,42)
ShowMessage("\\n<Luka>")
ShowMessage("Unnngh...")
ShowMessageFace("",0,0,2,43)
ShowMessage("I feel so weak I have to lean on Wakame.")
ShowMessage("My body is paralyzed from the lingering pleasure and I can't even move my limbs.")
ShowMessageFace("",0,0,2,44)
ShowMessage("She holds me gently with her slick body...")
ShowMessage("Wakame looks at me and laughs satisfied.")
221()
PictureClear(5)
246(2)
ShowMessageFace("",0,0,2,45)
ShowMessage("........")
RunCommonEvent(3998)
0()
