// EVENT 4346
Name "Watermelon Girl 1"

If(0,25,1)
 221()
 PictureClear(5)
 PictureClear(6)
 ShowMessageFace("",0,0,2,1)
 ShowMessage("........")
 242(2)
 Wait(120)
 241(bytes(0x04,0x08,0x6f,0x3a,0x0d,0x52,0x50,0x47,0x3a,0x3a,0x42,0x47,0x4d,0x08,0x3a,0x0a,0x40,0x6e,0x61,0x6d,0x65,0x49,0x22,0x0c,0x63,0x61,0x73,0x74,0x6c,0x65,0x36,0x06,0x3a,0x06,0x45,0x54,0x3a,0x0c,0x40,0x76,0x6f,0x6c,0x75,0x6d,0x65,0x69,0x69,0x3a,0x0b,0x40,0x70,0x69,0x74,0x63,0x68,0x69,0x69))
 EndEventProcessing()
 0()
EndIf()
PictureDisplay(5,"80_suika_st01",0,0,0,0,100,100,255,0)
ShowMessageFace("suika_fc1",1,0,2,2)
ShowMessage("\\n<Melon>")
ShowMessage("You want me to make you feel good?")
ShowMessage("Well then...")
ShowMessageFace("",0,0,2,3)
ShowMessage("While giggling, Melon approaches me...")
241(bytes(0x04,0x08,0x6f,0x3a,0x0d,0x52,0x50,0x47,0x3a,0x3a,0x42,0x47,0x4d,0x08,0x3a,0x0a,0x40,0x6e,0x61,0x6d,0x65,0x49,0x22,0x09,0x65,0x72,0x6f,0x31,0x06,0x3a,0x06,0x45,0x54,0x3a,0x0c,0x40,0x76,0x6f,0x6c,0x75,0x6d,0x65,0x69,0x69,0x3a,0x0b,0x40,0x70,0x69,0x74,0x63,0x68,0x69,0x69))
PictureDisplay(5,"80_suika_st02",0,0,0,0,100,100,255,0)
ShowMessageFace("suika_fc1",1,0,2,4)
ShowMessage("\\n<Melon>")
ShowMessage("Well then I'll have you shoot your seed in my watermelon.")
ShowMessageFace("",0,0,2,5)
ShowMessage("Her watermelon's mouth opens wide!")
ShowMessage("The red wavy flesh inside it wriggles...")
ShowMessageFace("",0,0,2,6)
ShowMessage("\\n<Luka>")
ShowMessage("N...No way...Wh-why the watermelon...?!")
ShowMessageFace("suika_fc1",1,0,2,7)
ShowMessage("\\n<Melon>")
ShowMessage("Eh? Don't you understand?")
ShowMessage("Fruits are like reproductive organs to plants...")
ShowMessageFace("suika_fc1",1,0,2,8)
ShowMessage("\\n<Melon>")
ShowMessage("In other words this watermelon is my reproductive organ.")
ShowMessage("You'll get to have sex with me, aren't you happy?")
ShowMessageFace("",0,0,2,9)
ShowMessage("\\n<Luka>")
ShowMessage("S-stop it, such a thing...Aaaah!")
245(bytes(0x04,0x08,0x6f,0x3a,0x0d,0x52,0x50,0x47,0x3a,0x3a,0x42,0x47,0x53,0x08,0x3a,0x0a,0x40,0x6e,0x61,0x6d,0x65,0x49,0x22,0x17,0x6d,0x6f,0x6e,0x5f,0x68,0x73,0x65,0x61,0x6e,0x31,0x36,0x5f,0x6b,0x79,0x75,0x69,0x6e,0x33,0x06,0x3a,0x06,0x45,0x54,0x3a,0x0c,0x40,0x76,0x6f,0x6c,0x75,0x6d,0x65,0x69,0x55,0x3a,0x0b,0x40,0x70,0x69,0x74,0x63,0x68,0x69,0x69))
PictureDisplay(5,"ev_suika_h1",0,0,0,0,100,100,0,0)
PictureMove(5,null,0,0,0,0,100,100,255,0,30,true)
ShowMessageFace("",0,0,2,10)
ShowMessage("Before I can finish my sentence...")
ShowMessage("The watermelon opens wide and sucks in my lower body.")
ShowMessageFace("",0,0,2,11)
ShowMessage("\\n<Luka>")
ShowMessage("Ah, Aaaah...!!")
ShowMessageFace("suika_fc1",1,0,2,12)
ShowMessage("\\n<Melon>")
ShowMessage("Well, how does my flesh feel?")
ShowMessage("Does your penis feel good?")
PictureDisplay(5,"ev_suika_h2",0,0,0,0,100,100,255,0)
ShowMessageFace("",0,0,2,13)
ShowMessage("The inside of her fruit feels like a rippling wall of flesh.")
ShowMessage("It's very wet inside and filled with juices and my lower body is soaking wet.")
ShowMessageFace("",0,0,2,14)
ShowMessage("Wrapped in her soft flesh my penis grows bigger.")
ShowMessage("The wavy motion inside her gives my penis a sweet feeling of pleasure.")
ShowMessageFace("",0,0,2,15)
ShowMessage("\\n<Luka>")
ShowMessage("Th-this is...So good...")
ShowMessageFace("suika_fc1",1,0,2,16)
ShowMessage("\\n<Melon>")
ShowMessage("Ahaha, do you like it?")
ShowMessage("I told you this watermelon is practically my pussy...")
ShowMessageFace("suika_fc1",1,0,2,17)
ShowMessage("\\n<Melon>")
ShowMessage("Do you like having your penis played with in my lower mouth?")
ShowMessage("Does it feel good to have sex with me?")
ShowMessageFace("",0,0,2,18)
ShowMessage("\\n<Luka>")
ShowMessage("N...No way...")
ShowMessageFace("",0,0,2,19)
ShowMessage("I feel her flesh wrapping and pulling on my penis.")
ShowMessage("It feels exactly like having sex.")
ShowMessageFace("",0,0,2,20)
ShowMessage("I'm having sex with her...")
ShowMessage("The immorality of this act ramps up my excitement.")
ShowMessageFace("",0,0,2,21)
ShowMessage("\\n<Luka>")
ShowMessage("D-Don't...Aaaah...!")
ShowMessageFace("suika_fc1",1,0,2,22)
ShowMessage("\\n<Melon>")
ShowMessage("You don't want to? But it feels good...")
ShowMessage("Don't you like mating with plants?")
ShowMessageFace("",0,0,2,23)
ShowMessage("The girl grins and looks down at me.")
ShowMessage("Her intense gaze only increases my excitement of this immoral act.")
ShowMessageFace("",0,0,2,24)
ShowMessage("The pulp of her watermelon wraps and rubs my penis.")
ShowMessage("A large amount of her juices soak my penis from glans to root.")
ShowMessageFace("",0,0,2,25)
ShowMessage("While tasting the sweet feeling a dull ache spreads through my waist...")
ShowMessage("My hips buck up and push into her.")
ShowMessageFace("",0,0,2,26)
ShowMessage("\\n<Luka>")
ShowMessage("Ah... No! I'm coming!")
ShowMessageFace("suika_fc1",1,0,2,27)
ShowMessage("\\n<Melon>")
ShowMessage("Huh? But you just put it in.")
ShowMessage("Hold on a bit longer...")
ShowMessageFace("",0,0,2,28)
ShowMessage("\\n<Luka>")
ShowMessage("I-I can't...")
ShowMessage("Aaaahhh...!!")
RunCommonEvent(104)
PictureDisplay(5,"ev_suika_h3",0,0,0,0,100,100,255,0)
RunCommonEvent(105)
ShowMessageFace("",0,0,2,29)
ShowMessage("My penis starts pulsating inside her watermelon.")
ShowMessage("While the sweet feeling of release fills me I shoot my semen.")
ShowMessageFace("",0,0,2,30)
ShowMessage("I came right after being wrapped by her watermelon.")
ShowMessage("Coming inside a watermelon...")
ShowMessageFace("",0,0,2,31)
ShowMessage("Makes me tremble in shame and humiliation.")
ShowMessageFace("",0,0,2,32)
ShowMessage("\\n<Luka>")
ShowMessage("Hauuu...")
ShowMessageFace("suika_fc1",1,0,2,33)
ShowMessage("\\n<Melon>")
ShowMessage("You came already...?")
ShowMessage("It's unbelievable how fast you came...")
ShowMessageFace("suika_fc1",1,0,2,34)
ShowMessage("\\n<Melon>")
ShowMessage("But you still have a lot more to shoot out.")
ShowMessage("I'll have you let out a lot of semen in my watermelon ♪")
ShowMessageFace("",0,0,2,35)
ShowMessage("\\n<Luka>")
ShowMessage("Th-that's... Auuuu...")
ShowMessageFace("",0,0,2,36)
ShowMessage("Her flesh keeps rubbing and wrapping around my penis absorbing the semen I just let out.")
ShowMessage("A lot of her fruit juice is released over me sending sparks of pleasure through my body.")
ShowMessageFace("suika_fc1",1,0,2,37)
ShowMessage("\\n<Melon>")
ShowMessage("Hoo-ra give me more.")
ShowMessage("If I do this will you come again quickly?")
ShowMessageFace("",0,0,2,38)
ShowMessage("\\n<Luka>")
ShowMessage("Aaaah...!")
ShowMessageFace("",0,0,2,39)
ShowMessage("Her wavy motions became more erotic her flesh becoming wetter to match.")
ShowMessage("She wraps my penis more and rubs it diligently.")
ShowMessageFace("",0,0,2,40)
ShowMessage("My tip is stimulated by her warm flesh and fruit juice.")
ShowMessage("My entire glans is encased in her slimy membrane.")
ShowMessageFace("",0,0,2,41)
ShowMessage("\\n<Luka>")
ShowMessage("T-That feels good...")
ShowMessageFace("suika_fc1",1,0,2,42)
ShowMessage("\\n<Melon>")
ShowMessage("Hora hora...♪")
ShowMessage("Come ♪ Let it all out~♪")
ShowMessageFace("",0,0,2,43)
ShowMessage("\\n<Luka>")
ShowMessage("Ah, Aaaaaah!!")
RunCommonEvent(104)
PictureDisplay(5,"ev_suika_h4",0,0,0,0,100,100,255,0)
RunCommonEvent(105)
ShowMessageFace("",0,0,2,44)
ShowMessage("Unable to endure the stimulation of her warm pulp, I come.")
ShowMessage("Entrusting myself to the sweet feeling of release I shoot out my semen inside her.")
ShowMessageFace("",0,0,2,45)
ShowMessage("The semen she didn't manage to absorb drips from the mouth of the watermelon.")
ShowMessage("The Watermelon Girl scoops it up with her fingers.")
ShowMessageFace("suika_fc1",1,0,2,46)
ShowMessage("\\n<Melon>")
ShowMessage("Ahaha what sticky semen ♪")
ShowMessage("Your children are swimming energetically aren't they?")
ShowMessageFace("",0,0,2,47)
ShowMessage("The Melon plays with the strand of semen with her fingers.")
ShowMessage("She brings her fingers to her mouth and tastes my semen with her tongue.")
ShowMessageFace("",0,0,2,48)
ShowMessage("After lapping up all the semen from her fingers the girl looks down at me with a smile on her face.")
ShowMessage("It feels as though I'm being dominated by her...")
ShowMessageFace("suika_fc1",1,0,2,49)
ShowMessage("\\n<Melon>")
ShowMessage("I can't let you escape yet.")
ShowMessage("You'll be my mating partner for a long time ♪")
ShowMessageFace("",0,0,2,50)
ShowMessage("\\n<Luka>")
ShowMessage("N...No way...Auuu!")
ShowMessageFace("suika_fc1",1,0,2,51)
ShowMessage("\\n<Melon>")
ShowMessage("You can complain after you ejaculate more.")
ShowMessage("You should get addicted to this kind of stimulation...")
ShowMessageFace("",0,0,2,52)
ShowMessage("\\n<Luka>")
ShowMessage("Nnngh... Ah, aaaah...!!")
RunCommonEvent(104)
RunCommonEvent(105)
ShowMessageFace("",0,0,2,53)
ShowMessage("My lower body is caught inside her watermelon and I'm forced to come.")
ShowMessage("I'm completely dominated by this girl ejaculating almost on her command.")
ShowMessageFace("",0,0,2,54)
ShowMessage("I'm toyed with endlessly by this little girl while I shed tears of misery and regret. ")
ShowMessage("And in her watermelon she continued to suck my semen...")
221()
PictureClear(5)
246(2)
ShowMessageFace("",0,0,2,55)
ShowMessage("........")
242(2)
Wait(120)
241(bytes(0x04,0x08,0x6f,0x3a,0x0d,0x52,0x50,0x47,0x3a,0x3a,0x42,0x47,0x4d,0x08,0x3a,0x0a,0x40,0x6e,0x61,0x6d,0x65,0x49,0x22,0x0c,0x63,0x61,0x73,0x74,0x6c,0x65,0x36,0x06,0x3a,0x06,0x45,0x54,0x3a,0x0c,0x40,0x76,0x6f,0x6c,0x75,0x6d,0x65,0x69,0x69,0x3a,0x0b,0x40,0x70,0x69,0x74,0x63,0x68,0x69,0x69))
0()
